categories.txt 4880b67bc381ba3e77e3144da5c0b188ef24cc47c387d6663b02a4114f662431 2023-07-04
entry.jar d71eb3fda9ff70fe7af22435c9b660443c6a51fcb3ac930ee37867588ed93827 2022-10-08
entry.json 01b561210e361b7135e37e55cdd36f5ee3fa23ca558fa34864c6e839395bd579 2022-10-08
index-v2.json 46914760445d619c645fd8b54dc8478b727b8b55652865adabaa09be66d1e16c 2022-10-08
index.css c72361a11887eb0a9a0bfebdeb035800b344c7e490b1b672aa4fdf0e27b9f5f5 2022-10-08
index.png 89f34db1a3cf3a5f820fa5e3fa9f3cd3545feaaa8972f61a16a9263b67dfe237 2022-10-08
net.taler.cashier.nightly_1582550759.apk net.taler.cashier.nightly 2020-03-02
net.taler.cashier.nightly_1582570343.apk net.taler.cashier.nightly 2020-03-02
net.taler.cashier.nightly_1584555130.apk net.taler.cashier.nightly 2020-03-18
net.taler.cashier.nightly_1584559823.apk net.taler.cashier.nightly 2020-03-18
net.taler.cashier.nightly_1584732219.apk net.taler.cashier.nightly 2020-03-20
net.taler.cashier.nightly_1585054944.apk net.taler.cashier.nightly 2020-03-24
net.taler.cashier.nightly_1585847471.apk net.taler.cashier.nightly 2020-04-02
net.taler.cashier.nightly_1586804086.apk net.taler.cashier.nightly 2020-04-13
net.taler.cashier.nightly_1587580455.apk net.taler.cashier.nightly 2020-04-22
net.taler.cashier.nightly_1587585923.apk net.taler.cashier.nightly 2020-04-22
net.taler.cashier.nightly_1587655614.apk net.taler.cashier.nightly 2020-04-23
net.taler.cashier.nightly_1588271019.apk net.taler.cashier.nightly 2020-04-30
net.taler.cashier.nightly_1588862997.apk net.taler.cashier.nightly 2020-05-07
net.taler.cashier.nightly_1590498863.apk net.taler.cashier.nightly 2020-05-26
net.taler.cashier.nightly_1590770744.apk net.taler.cashier.nightly 2020-05-29
net.taler.cashier.nightly_1596196938.apk net.taler.cashier.nightly 2020-07-31
net.taler.cashier.nightly_1596473906.apk net.taler.cashier.nightly 2020-08-03
net.taler.cashier.nightly_1597763512.apk net.taler.cashier.nightly 2020-08-18
net.taler.cashier.nightly_1598276576.apk net.taler.cashier.nightly 2020-08-24
net.taler.cashier.nightly_1598290735.apk net.taler.cashier.nightly 2020-08-24
net.taler.cashier.nightly_1598448161.apk net.taler.cashier.nightly 2020-08-26
net.taler.cashier.nightly_1598559241.apk net.taler.cashier.nightly 2020-08-27
net.taler.cashier.nightly_1598971226.apk net.taler.cashier.nightly 2020-09-01
net.taler.cashier.nightly_1598984268.apk net.taler.cashier.nightly 2020-09-01
net.taler.cashier.nightly_1599152014.apk net.taler.cashier.nightly 2020-09-03
net.taler.cashier.nightly_1599155678.apk net.taler.cashier.nightly 2020-09-03
net.taler.cashier.nightly_1599157503.apk net.taler.cashier.nightly 2020-09-03
net.taler.cashier.nightly_1599595978.apk net.taler.cashier.nightly 2020-09-08
net.taler.cashier.nightly_1600267047.apk net.taler.cashier.nightly 2020-09-16
net.taler.cashier.nightly_1600951940.apk net.taler.cashier.nightly 2020-09-24
net.taler.cashier.nightly_1602597292.apk net.taler.cashier.nightly 2020-10-13
net.taler.cashier.nightly_1609772177.apk net.taler.cashier.nightly 2021-01-04
net.taler.cashier.nightly_1612450187.apk net.taler.cashier.nightly 2021-02-04
net.taler.cashier.nightly_1612786220.apk net.taler.cashier.nightly 2021-02-08
net.taler.cashier.nightly_1634053704.apk net.taler.cashier.nightly 2021-10-12
net.taler.cashier.nightly_1638909686.apk net.taler.cashier.nightly 2021-12-07
net.taler.cashier.nightly_1640108057.apk net.taler.cashier.nightly 2021-12-21
net.taler.cashier.nightly_1644520109.apk net.taler.cashier.nightly 2022-02-10
net.taler.cashier.nightly_1644564643.apk net.taler.cashier.nightly 2022-02-11
net.taler.cashier.nightly_1644566653.apk net.taler.cashier.nightly 2022-02-11
net.taler.cashier.nightly_1645567683.apk net.taler.cashier.nightly 2022-02-22
net.taler.cashier.nightly_1656620331.apk net.taler.cashier.nightly 2022-06-30
net.taler.cashier.nightly_1656699619.apk net.taler.cashier.nightly 2022-07-01
net.taler.cashier.nightly_1657109861.apk net.taler.cashier.nightly 2022-07-06
net.taler.cashier.nightly_1657113030.apk net.taler.cashier.nightly 2022-07-06
net.taler.cashier.nightly_1657825154.apk net.taler.cashier.nightly 2022-07-14
net.taler.cashier.nightly_1660765877.apk net.taler.cashier.nightly 2022-08-17
net.taler.cashier.nightly_1660769365.apk net.taler.cashier.nightly 2022-08-17
net.taler.cashier.nightly_1663090057.apk net.taler.cashier.nightly 2022-09-13
net.taler.cashier.nightly_1667328264.apk net.taler.cashier.nightly 2022-11-01
net.taler.cashier.nightly_1673622314.apk net.taler.cashier.nightly 2023-01-13
net.taler.cashier.nightly_1674055001.apk net.taler.cashier.nightly 2023-01-18
net.taler.cashier.nightly_1688490708.apk net.taler.cashier.nightly 2023-07-04
net.taler.cashier.nightly_1697036691.apk net.taler.cashier.nightly 2023-10-11
net.taler.cashier.nightly_1708449686.apk net.taler.cashier.nightly 2024-02-20
net.taler.cashier.nightly_1711042887.apk net.taler.cashier.nightly 2024-03-21
net.taler.cashier.nightly_1711134829.apk net.taler.cashier.nightly 2024-03-22
net.taler.cashier.nightly_1711561559.apk net.taler.cashier.nightly 2024-03-27
net.taler.cashier.nightly_1713208633.apk net.taler.cashier.nightly 2024-04-15
net.taler.cashier.nightly_1715626666.apk net.taler.cashier.nightly 2024-05-13
net.taler.merchantpos.nightly_1582552486.apk net.taler.merchantpos.nightly 2020-03-02
net.taler.merchantpos.nightly_1582647643.apk net.taler.merchantpos.nightly 2020-03-02
net.taler.merchantpos.nightly_1582742090.apk net.taler.merchantpos.nightly 2020-03-02
net.taler.merchantpos.nightly_1582753149.apk net.taler.merchantpos.nightly 2020-03-02
net.taler.merchantpos.nightly_1582835052.apk net.taler.merchantpos.nightly 2020-03-02
net.taler.merchantpos.nightly_1583175398.apk net.taler.merchantpos.nightly 2020-03-02
net.taler.merchantpos.nightly_1583181882.apk net.taler.merchantpos.nightly 2020-03-02
net.taler.merchantpos.nightly_1583268477.apk net.taler.merchantpos.nightly 2020-03-03
net.taler.merchantpos.nightly_1583338693.apk net.taler.merchantpos.nightly 2020-03-04
net.taler.merchantpos.nightly_1583779994.apk net.taler.merchantpos.nightly 2020-03-09
net.taler.merchantpos.nightly_1583930698.apk net.taler.merchantpos.nightly 2020-03-11
net.taler.merchantpos.nightly_1584365512.apk net.taler.merchantpos.nightly 2020-03-16
net.taler.merchantpos.nightly_1584461440.apk net.taler.merchantpos.nightly 2020-03-17
net.taler.merchantpos.nightly_1584732341.apk net.taler.merchantpos.nightly 2020-03-20
net.taler.merchantpos.nightly_1585589835.apk net.taler.merchantpos.nightly 2020-03-30
net.taler.merchantpos.nightly_1585768044.apk net.taler.merchantpos.nightly 2020-04-01
net.taler.merchantpos.nightly_1585847950.apk net.taler.merchantpos.nightly 2020-04-02
net.taler.merchantpos.nightly_1586806171.apk net.taler.merchantpos.nightly 2020-04-13
net.taler.merchantpos.nightly_1587063095.apk net.taler.merchantpos.nightly 2020-04-16
net.taler.merchantpos.nightly_1587656430.apk net.taler.merchantpos.nightly 2020-04-23
net.taler.merchantpos.nightly_1588271944.apk net.taler.merchantpos.nightly 2020-04-30
net.taler.merchantpos.nightly_1588605714.apk net.taler.merchantpos.nightly 2020-05-04
net.taler.merchantpos.nightly_1588863986.apk net.taler.merchantpos.nightly 2020-05-07
net.taler.merchantpos.nightly_1589564829.apk net.taler.merchantpos.nightly 2020-05-15
net.taler.merchantpos.nightly_1590499323.apk net.taler.merchantpos.nightly 2020-05-26
net.taler.merchantpos.nightly_1595275161.apk net.taler.merchantpos.nightly 2020-07-20
net.taler.merchantpos.nightly_1595355745.apk net.taler.merchantpos.nightly 2020-07-21
net.taler.merchantpos.nightly_1595449627.apk net.taler.merchantpos.nightly 2020-07-22
net.taler.merchantpos.nightly_1595532431.apk net.taler.merchantpos.nightly 2020-07-23
net.taler.merchantpos.nightly_1596474439.apk net.taler.merchantpos.nightly 2020-08-03
net.taler.merchantpos.nightly_1596546200.apk net.taler.merchantpos.nightly 2020-08-04
net.taler.merchantpos.nightly_1597179682.apk net.taler.merchantpos.nightly 2020-08-11
net.taler.merchantpos.nightly_1597764052.apk net.taler.merchantpos.nightly 2020-08-18
net.taler.merchantpos.nightly_1598277130.apk net.taler.merchantpos.nightly 2020-08-24
net.taler.merchantpos.nightly_1598291296.apk net.taler.merchantpos.nightly 2020-08-24
net.taler.merchantpos.nightly_1598301745.apk net.taler.merchantpos.nightly 2020-08-24
net.taler.merchantpos.nightly_1598559806.apk net.taler.merchantpos.nightly 2020-08-27
net.taler.merchantpos.nightly_1598971786.apk net.taler.merchantpos.nightly 2020-09-01
net.taler.merchantpos.nightly_1599152631.apk net.taler.merchantpos.nightly 2020-09-03
net.taler.merchantpos.nightly_1599156233.apk net.taler.merchantpos.nightly 2020-09-03
net.taler.merchantpos.nightly_1599490175.apk net.taler.merchantpos.nightly 2020-09-07
net.taler.merchantpos.nightly_1599596544.apk net.taler.merchantpos.nightly 2020-09-08
net.taler.merchantpos.nightly_1599765161.apk net.taler.merchantpos.nightly 2020-09-10
net.taler.merchantpos.nightly_1600268584.apk net.taler.merchantpos.nightly 2020-09-16
net.taler.merchantpos.nightly_1609764870.apk net.taler.merchantpos.nightly 2021-01-04
net.taler.merchantpos.nightly_1609772625.apk net.taler.merchantpos.nightly 2021-01-04
net.taler.merchantpos.nightly_1612450751.apk net.taler.merchantpos.nightly 2021-02-04
net.taler.merchantpos.nightly_1612537463.apk net.taler.merchantpos.nightly 2021-02-05
net.taler.merchantpos.nightly_1612544813.apk net.taler.merchantpos.nightly 2021-02-05
net.taler.merchantpos.nightly_1612786733.apk net.taler.merchantpos.nightly 2021-02-08
net.taler.merchantpos.nightly_1634055151.apk net.taler.merchantpos.nightly 2021-10-12
net.taler.merchantpos.nightly_1638919062.apk net.taler.merchantpos.nightly 2021-12-07
net.taler.merchantpos.nightly_1640108912.apk net.taler.merchantpos.nightly 2021-12-21
net.taler.merchantpos.nightly_1644518499.apk net.taler.merchantpos.nightly 2022-02-10
net.taler.merchantpos.nightly_1644562814.apk net.taler.merchantpos.nightly 2022-02-11
net.taler.merchantpos.nightly_1644567385.apk net.taler.merchantpos.nightly 2022-02-11
net.taler.merchantpos.nightly_1645566878.apk net.taler.merchantpos.nightly 2022-02-22
net.taler.merchantpos.nightly_1656621137.apk net.taler.merchantpos.nightly 2022-06-30
net.taler.merchantpos.nightly_1657113872.apk net.taler.merchantpos.nightly 2022-07-06
net.taler.merchantpos.nightly_1660770119.apk net.taler.merchantpos.nightly 2022-08-17
net.taler.merchantpos.nightly_1665221151.apk net.taler.merchantpos.nightly 2022-10-08
net.taler.merchantpos.nightly_1667329049.apk net.taler.merchantpos.nightly 2022-11-01
net.taler.merchantpos.nightly_1673621575.apk net.taler.merchantpos.nightly 2023-01-13
net.taler.merchantpos.nightly_1674055431.apk net.taler.merchantpos.nightly 2023-01-18
net.taler.merchantpos.nightly_1674058549.apk net.taler.merchantpos.nightly 2023-01-18
net.taler.merchantpos.nightly_1675189837.apk net.taler.merchantpos.nightly 2023-01-31
net.taler.merchantpos.nightly_1678298335.apk net.taler.merchantpos.nightly 2023-03-08
net.taler.merchantpos.nightly_1678302059.apk net.taler.merchantpos.nightly 2023-03-08
net.taler.merchantpos.nightly_1681246157.apk net.taler.merchantpos.nightly 2023-04-11
net.taler.merchantpos.nightly_1688491631.apk net.taler.merchantpos.nightly 2023-07-04
net.taler.merchantpos.nightly_1689086038.apk net.taler.merchantpos.nightly 2023-07-11
net.taler.merchantpos.nightly_1693921287.apk net.taler.merchantpos.nightly 2023-09-05
net.taler.merchantpos.nightly_1694167984.apk net.taler.merchantpos.nightly 2023-09-08
net.taler.merchantpos.nightly_1697037150.apk net.taler.merchantpos.nightly 2023-10-11
net.taler.merchantpos.nightly_1709831974.apk net.taler.merchantpos.nightly 2024-03-07
net.taler.merchantpos.nightly_1711043530.apk net.taler.merchantpos.nightly 2024-03-21
net.taler.merchantpos.nightly_1717532406.apk net.taler.merchantpos.nightly 2024-06-04
net.taler.merchantpos.nightly_1717781447.apk net.taler.merchantpos.nightly 2024-06-07
net.taler.merchantpos.nightly_1718370731.apk net.taler.merchantpos.nightly 2024-06-14
net.taler.merchantpos.nightly_1718640169.apk net.taler.merchantpos.nightly 2024-06-17
net.taler.merchantpos.nightly_1718642926.apk net.taler.merchantpos.nightly 2024-06-17
net.taler.wallet.nightly_1583427816.apk net.taler.wallet.nightly 2020-03-05
net.taler.wallet.nightly_1583435106.apk net.taler.wallet.nightly 2020-03-05
net.taler.wallet.nightly_1583519860.apk net.taler.wallet.nightly 2020-03-06
net.taler.wallet.nightly_1583853073.apk net.taler.wallet.nightly 2020-03-10
net.taler.wallet.nightly_1583932800.apk net.taler.wallet.nightly 2020-03-11
net.taler.wallet.nightly_1584386404.apk net.taler.wallet.nightly 2020-03-16
net.taler.wallet.nightly_1585055026.apk net.taler.wallet.nightly 2020-03-24
net.taler.wallet.nightly_1585848419.apk net.taler.wallet.nightly 2020-04-02
net.taler.wallet.nightly_1585853011.apk net.taler.wallet.nightly 2020-04-02
net.taler.wallet.nightly_1585939463.apk net.taler.wallet.nightly 2020-04-03
net.taler.wallet.nightly_1586187737.apk net.taler.wallet.nightly 2020-04-06
net.taler.wallet.nightly_1586540077.apk net.taler.wallet.nightly 2020-04-10
net.taler.wallet.nightly_1586804788.apk net.taler.wallet.nightly 2020-04-13
net.taler.wallet.nightly_1586970391.apk net.taler.wallet.nightly 2020-04-15
net.taler.wallet.nightly_1587062243.apk net.taler.wallet.nightly 2020-04-16
net.taler.wallet.nightly_1587740739.apk net.taler.wallet.nightly 2020-04-24
net.taler.wallet.nightly_1588272761.apk net.taler.wallet.nightly 2020-04-30
net.taler.wallet.nightly_1588274784.apk net.taler.wallet.nightly 2020-04-30
net.taler.wallet.nightly_1588604743.apk net.taler.wallet.nightly 2020-05-04
net.taler.wallet.nightly_1588865043.apk net.taler.wallet.nightly 2020-05-07
net.taler.wallet.nightly_1588947929.apk net.taler.wallet.nightly 2020-05-08
net.taler.wallet.nightly_1588958602.apk net.taler.wallet.nightly 2020-05-08
net.taler.wallet.nightly_1589207592.apk net.taler.wallet.nightly 2020-05-11
net.taler.wallet.nightly_1589209450.apk net.taler.wallet.nightly 2020-05-11
net.taler.wallet.nightly_1589214970.apk net.taler.wallet.nightly 2020-05-11
net.taler.wallet.nightly_1589290068.apk net.taler.wallet.nightly 2020-05-12
net.taler.wallet.nightly_1589376341.apk net.taler.wallet.nightly 2020-05-13
net.taler.wallet.nightly_1589807083.apk net.taler.wallet.nightly 2020-05-18
net.taler.wallet.nightly_1589914086.apk net.taler.wallet.nightly 2020-05-19
net.taler.wallet.nightly_1589987177.apk net.taler.wallet.nightly 2020-05-20
net.taler.wallet.nightly_1590170625.apk net.taler.wallet.nightly 2020-05-22
net.taler.wallet.nightly_1590499820.apk net.taler.wallet.nightly 2020-05-26
net.taler.wallet.nightly_1591903342.apk net.taler.wallet.nightly 2020-06-11
net.taler.wallet.nightly_1592850176.apk net.taler.wallet.nightly 2020-06-22
net.taler.wallet.nightly_1593194911.apk net.taler.wallet.nightly 2020-07-02
net.taler.wallet.nightly_1593719356.apk net.taler.wallet.nightly 2020-07-02
net.taler.wallet.nightly_1595016800.apk net.taler.wallet.nightly 2020-07-17
net.taler.wallet.nightly_1595274593.apk net.taler.wallet.nightly 2020-07-20
net.taler.wallet.nightly_1595356342.apk net.taler.wallet.nightly 2020-07-21
net.taler.wallet.nightly_1596197508.apk net.taler.wallet.nightly 2020-07-31
net.taler.wallet.nightly_1596475084.apk net.taler.wallet.nightly 2020-08-03
net.taler.wallet.nightly_1596654878.apk net.taler.wallet.nightly 2020-08-05
net.taler.wallet.nightly_1597253455.apk net.taler.wallet.nightly 2020-08-12
net.taler.wallet.nightly_1597764707.apk net.taler.wallet.nightly 2020-08-18
net.taler.wallet.nightly_1597924952.apk net.taler.wallet.nightly 2020-08-20
net.taler.wallet.nightly_1598204461.apk net.taler.wallet.nightly 2020-08-23
net.taler.wallet.nightly_1598211493.apk net.taler.wallet.nightly 2020-08-23
net.taler.wallet.nightly_1598277801.apk net.taler.wallet.nightly 2020-08-24
net.taler.wallet.nightly_1598291991.apk net.taler.wallet.nightly 2020-08-24
net.taler.wallet.nightly_1598302368.apk net.taler.wallet.nightly 2020-08-24
net.taler.wallet.nightly_1598448909.apk net.taler.wallet.nightly 2020-08-26
net.taler.wallet.nightly_1598560458.apk net.taler.wallet.nightly 2020-08-27
net.taler.wallet.nightly_1598972490.apk net.taler.wallet.nightly 2020-09-01
net.taler.wallet.nightly_1599153320.apk net.taler.wallet.nightly 2020-09-03
net.taler.wallet.nightly_1599218814.apk net.taler.wallet.nightly 2020-09-04
net.taler.wallet.nightly_1599312149.apk net.taler.wallet.nightly 2020-09-05
net.taler.wallet.nightly_1599405756.apk net.taler.wallet.nightly 2020-09-06
net.taler.wallet.nightly_1599490862.apk net.taler.wallet.nightly 2020-09-07
net.taler.wallet.nightly_1599499048.apk net.taler.wallet.nightly 2020-09-07
net.taler.wallet.nightly_1599597201.apk net.taler.wallet.nightly 2020-09-08
net.taler.wallet.nightly_1599638739.apk net.taler.wallet.nightly 2020-09-09
net.taler.wallet.nightly_1599668773.apk net.taler.wallet.nightly 2020-09-09
net.taler.wallet.nightly_1599765848.apk net.taler.wallet.nightly 2020-09-10
net.taler.wallet.nightly_1599831642.apk net.taler.wallet.nightly 2020-09-11
net.taler.wallet.nightly_1600267808.apk net.taler.wallet.nightly 2020-09-16
net.taler.wallet.nightly_1600884410.apk net.taler.wallet.nightly 2020-09-23
net.taler.wallet.nightly_1601319784.apk net.taler.wallet.nightly 2020-09-28
net.taler.wallet.nightly_1602598283.apk net.taler.wallet.nightly 2020-10-13
net.taler.wallet.nightly_1609773228.apk net.taler.wallet.nightly 2021-01-04
net.taler.wallet.nightly_1612451360.apk net.taler.wallet.nightly 2021-02-04
net.taler.wallet.nightly_1612528861.apk net.taler.wallet.nightly 2021-02-05
net.taler.wallet.nightly_1612787501.apk net.taler.wallet.nightly 2021-02-08
net.taler.wallet.nightly_1626144240.apk net.taler.wallet.nightly 2021-07-13
net.taler.wallet.nightly_1634051822.apk net.taler.wallet.nightly 2021-10-12
net.taler.wallet.nightly_1634054446.apk net.taler.wallet.nightly 2021-10-12
net.taler.wallet.nightly_1638113390.apk net.taler.wallet.nightly 2021-11-28
net.taler.wallet.nightly_1638159372.apk net.taler.wallet.nightly 2021-11-29
net.taler.wallet.nightly_1638910693.apk net.taler.wallet.nightly 2021-12-07
net.taler.wallet.nightly_1638992510.apk net.taler.wallet.nightly 2021-12-08
net.taler.wallet.nightly_1640104145.apk net.taler.wallet.nightly 2021-12-21
net.taler.wallet.nightly_1640109742.apk net.taler.wallet.nightly 2021-12-21
net.taler.wallet.nightly_1644424376.apk net.taler.wallet.nightly 2022-02-09
net.taler.wallet.nightly_1644487142.apk net.taler.wallet.nightly 2022-02-10
net.taler.wallet.nightly_1645568527.apk net.taler.wallet.nightly 2022-02-22
net.taler.wallet.nightly_1649868322.apk net.taler.wallet.nightly 2022-04-13
net.taler.wallet.nightly_1652284431.apk net.taler.wallet.nightly 2022-05-11
net.taler.wallet.nightly_1655750409.apk net.taler.wallet.nightly 2022-06-20
net.taler.wallet.nightly_1656623014.apk net.taler.wallet.nightly 2022-06-30
net.taler.wallet.nightly_1656711824.apk net.taler.wallet.nightly 2022-07-01
net.taler.wallet.nightly_1656938941.apk net.taler.wallet.nightly 2022-07-04
net.taler.wallet.nightly_1657086163.apk net.taler.wallet.nightly 2022-07-06
net.taler.wallet.nightly_1660761161.apk net.taler.wallet.nightly 2022-08-17
net.taler.wallet.nightly_1660764950.apk net.taler.wallet.nightly 2022-08-17
net.taler.wallet.nightly_1660766730.apk net.taler.wallet.nightly 2022-08-17
net.taler.wallet.nightly_1660770950.apk net.taler.wallet.nightly 2022-08-17
net.taler.wallet.nightly_1661279652.apk net.taler.wallet.nightly 2022-08-23
net.taler.wallet.nightly_1662501139.apk net.taler.wallet.nightly 2022-09-06
net.taler.wallet.nightly_1662578580.apk net.taler.wallet.nightly 2022-09-07
net.taler.wallet.nightly_1662581733.apk net.taler.wallet.nightly 2022-09-07
net.taler.wallet.nightly_1663093442.apk net.taler.wallet.nightly 2022-09-13
net.taler.wallet.nightly_1663676679.apk net.taler.wallet.nightly 2022-09-20
net.taler.wallet.nightly_1663680276.apk net.taler.wallet.nightly 2022-09-20
net.taler.wallet.nightly_1663684006.apk net.taler.wallet.nightly 2022-09-20
net.taler.wallet.nightly_1663924303.apk net.taler.wallet.nightly 2022-09-23
net.taler.wallet.nightly_1663951739.apk net.taler.wallet.nightly 2022-09-23
net.taler.wallet.nightly_1663971041.apk net.taler.wallet.nightly 2022-09-23
net.taler.wallet.nightly_1664198790.apk net.taler.wallet.nightly 2022-09-26
net.taler.wallet.nightly_1664292708.apk net.taler.wallet.nightly 2022-09-27
net.taler.wallet.nightly_1665403576.apk net.taler.wallet.nightly 2022-10-10
net.taler.wallet.nightly_1665962206.apk net.taler.wallet.nightly 2022-10-16
net.taler.wallet.nightly_1666027511.apk net.taler.wallet.nightly 2022-10-17
net.taler.wallet.nightly_1666216106.apk net.taler.wallet.nightly 2022-10-19
net.taler.wallet.nightly_1667329960.apk net.taler.wallet.nightly 2022-11-01
net.taler.wallet.nightly_1667331316.apk net.taler.wallet.nightly 2022-11-01
net.taler.wallet.nightly_1667392975.apk net.taler.wallet.nightly 2022-11-02
net.taler.wallet.nightly_1673620673.apk net.taler.wallet.nightly 2023-01-13
net.taler.wallet.nightly_1674055929.apk net.taler.wallet.nightly 2023-01-18
net.taler.wallet.nightly_1674499448.apk net.taler.wallet.nightly 2023-01-23
net.taler.wallet.nightly_1674507698.apk net.taler.wallet.nightly 2023-01-23
net.taler.wallet.nightly_1675173096.apk net.taler.wallet.nightly 2023-01-31
net.taler.wallet.nightly_1675190295.apk net.taler.wallet.nightly 2023-01-31
net.taler.wallet.nightly_1676403633.apk net.taler.wallet.nightly 2023-02-14
net.taler.wallet.nightly_1676474199.apk net.taler.wallet.nightly 2023-02-15
net.taler.wallet.nightly_1677077448.apk net.taler.wallet.nightly 2023-02-22
net.taler.wallet.nightly_1677088503.apk net.taler.wallet.nightly 2023-02-22
net.taler.wallet.nightly_1677089387.apk net.taler.wallet.nightly 2023-02-22
net.taler.wallet.nightly_1677163839.apk net.taler.wallet.nightly 2023-02-23
net.taler.wallet.nightly_1678213463.apk net.taler.wallet.nightly 2023-03-07
net.taler.wallet.nightly_1678298784.apk net.taler.wallet.nightly 2023-03-08
net.taler.wallet.nightly_1679412224.apk net.taler.wallet.nightly 2023-03-21
net.taler.wallet.nightly_1679416576.apk net.taler.wallet.nightly 2023-03-21
net.taler.wallet.nightly_1679417768.apk net.taler.wallet.nightly 2023-03-21
net.taler.wallet.nightly_1680021272.apk net.taler.wallet.nightly 2023-03-28
net.taler.wallet.nightly_1680027250.apk net.taler.wallet.nightly 2023-03-28
net.taler.wallet.nightly_1680528771.apk net.taler.wallet.nightly 2023-04-03
net.taler.wallet.nightly_1680550379.apk net.taler.wallet.nightly 2023-04-03
net.taler.wallet.nightly_1681246618.apk net.taler.wallet.nightly 2023-04-11
net.taler.wallet.nightly_1681396807.apk net.taler.wallet.nightly 2023-04-13
net.taler.wallet.nightly_1681403453.apk net.taler.wallet.nightly 2023-04-13
net.taler.wallet.nightly_1681407160.apk net.taler.wallet.nightly 2023-04-13
net.taler.wallet.nightly_1681472500.apk net.taler.wallet.nightly 2023-04-14
net.taler.wallet.nightly_1688491171.apk net.taler.wallet.nightly 2023-07-04
net.taler.wallet.nightly_1689086498.apk net.taler.wallet.nightly 2023-07-11
net.taler.wallet.nightly_1693921792.apk net.taler.wallet.nightly 2023-09-05
net.taler.wallet.nightly_1694168442.apk net.taler.wallet.nightly 2023-09-08
net.taler.wallet.nightly_1695137909.apk net.taler.wallet.nightly 2023-09-19
net.taler.wallet.nightly_1695370636.apk net.taler.wallet.nightly 2023-09-22
net.taler.wallet.nightly_1695748183.apk net.taler.wallet.nightly 2023-09-26
net.taler.wallet.nightly_1695804948.apk net.taler.wallet.nightly 2023-09-27
net.taler.wallet.nightly_1696956058.apk net.taler.wallet.nightly 2023-10-10
net.taler.wallet.nightly_1697037651.apk net.taler.wallet.nightly 2023-10-11
net.taler.wallet.nightly_1698931526.apk net.taler.wallet.nightly 2023-11-02
net.taler.wallet.nightly_1699367532.apk net.taler.wallet.nightly 2023-11-07
net.taler.wallet.nightly_1701193240.apk net.taler.wallet.nightly 2023-11-28
net.taler.wallet.nightly_1704220509.apk net.taler.wallet.nightly 2024-01-02
net.taler.wallet.nightly_1704316039.apk net.taler.wallet.nightly 2024-01-03
net.taler.wallet.nightly_1704748036.apk net.taler.wallet.nightly 2024-01-08
net.taler.wallet.nightly_1705348645.apk net.taler.wallet.nightly 2024-01-15
net.taler.wallet.nightly_1708450187.apk net.taler.wallet.nightly 2024-02-20
net.taler.wallet.nightly_1709565706.apk net.taler.wallet.nightly 2024-03-04
net.taler.wallet.nightly_1709649126.apk net.taler.wallet.nightly 2024-03-05
net.taler.wallet.nightly_1709650670.apk net.taler.wallet.nightly 2024-03-05
net.taler.wallet.nightly_1709746101.apk net.taler.wallet.nightly 2024-03-06
net.taler.wallet.nightly_1709832456.apk net.taler.wallet.nightly 2024-03-07
net.taler.wallet.nightly_1710357029.apk net.taler.wallet.nightly 2024-03-13
net.taler.wallet.nightly_1710361424.apk net.taler.wallet.nightly 2024-03-13
net.taler.wallet.nightly_1711043997.apk net.taler.wallet.nightly 2024-03-21
net.taler.wallet.nightly_1711135311.apk net.taler.wallet.nightly 2024-03-22
net.taler.wallet.nightly_1711387935.apk net.taler.wallet.nightly 2024-03-25
net.taler.wallet.nightly_1711562021.apk net.taler.wallet.nightly 2024-03-27
net.taler.wallet.nightly_1711633600.apk net.taler.wallet.nightly 2024-03-28
net.taler.wallet.nightly_1711650997.apk net.taler.wallet.nightly 2024-03-28
net.taler.wallet.nightly_1712173070.apk net.taler.wallet.nightly 2024-04-03
net.taler.wallet.nightly_1713209106.apk net.taler.wallet.nightly 2024-04-15
net.taler.wallet.nightly_1713221460.apk net.taler.wallet.nightly 2024-04-15
net.taler.wallet.nightly_1713282045.apk net.taler.wallet.nightly 2024-04-16
net.taler.wallet.nightly_1715628491.apk net.taler.wallet.nightly 2024-05-13
net.taler.wallet.nightly_1715798478.apk net.taler.wallet.nightly 2024-05-15
net.taler.wallet.nightly_1715955293.apk net.taler.wallet.nightly 2024-05-17
net.taler.wallet.nightly_1716410637.apk net.taler.wallet.nightly 2024-05-22
net.taler.wallet.nightly_1716849604.apk net.taler.wallet.nightly 2024-05-27
net.taler.wallet.nightly_1716993738.apk net.taler.wallet.nightly 2024-05-29
net.taler.wallet.nightly_1717016632.apk net.taler.wallet.nightly 2024-05-29
net.taler.wallet.nightly_1717523297.apk net.taler.wallet.nightly 2024-06-04
net.taler.wallet.nightly_1717786731.apk net.taler.wallet.nightly 2024-06-07
